%YAML 1.1
%TAG !u! tag:unity3d.com,2011:
--- !u!114 &11400000
MonoBehaviour:
  m_ObjectHideFlags: 0
  m_CorrespondingSourceObject: {fileID: 0}
  m_PrefabInstance: {fileID: 0}
  m_PrefabAsset: {fileID: 0}
  m_GameObject: {fileID: 0}
  m_Enabled: 1
  m_EditorHideFlags: 0
  m_Script: {fileID: 11500000, guid: 4be9866b31b599846ad65ddab9e7d29f, type: 3}
  m_Name: BasePlayer
  m_EditorClassIdentifier: 
  PlayerName: Unknown
  Life: 20
  MaxLife: 20
  IsProtected: 0
  position: {x: 17, y: -10, z: 0}
  Inventory: {fileID: 11400000, guid: f7b4ffa0a963f9548833d0698fa1e16a, type: 2}
  Place: {fileID: 11400000, guid: 923f8f97673815c4ea99d93cdbe1f37b, type: 2}
