%YAML 1.1
%TAG !u! tag:unity3d.com,2011:
--- !u!114 &11400000
MonoBehaviour:
  m_ObjectHideFlags: 0
  m_CorrespondingSourceObject: {fileID: 0}
  m_PrefabInstance: {fileID: 0}
  m_PrefabAsset: {fileID: 0}
  m_GameObject: {fileID: 0}
  m_Enabled: 1
  m_EditorHideFlags: 0
  m_Script: {fileID: 11500000, guid: ec2a8d336722be74d8d2c045cf2a0ac2, type: 3}
  m_Name: SavePlayerInventory
  m_EditorClassIdentifier: 
  SwordUnlock: 0
  ShieldUnlock: 0
  BombUnlock: 0
  BowUnlock: 0
  Action1Equipment: 4
  Action2Equipment: 4
  Action3Interact: 0
  Money: 0
