%YAML 1.1
%TAG !u! tag:unity3d.com,2011:
--- !u!114 &11400000
MonoBehaviour:
  m_ObjectHideFlags: 0
  m_CorrespondingSourceObject: {fileID: 0}
  m_PrefabInstance: {fileID: 0}
  m_PrefabAsset: {fileID: 0}
  m_GameObject: {fileID: 0}
  m_Enabled: 1
  m_EditorHideFlags: 0
  m_Script: {fileID: 11500000, guid: 4be77f864d6aac34ab3a009aedf0e976, type: 3}
  m_Name: Dialogue1
  m_EditorClassIdentifier: 
  m_Text: "\rHello my name is Maurice !"
  m_DialogList:
  - 
  m_Sprite: {fileID: 21300020, guid: cdfd45abab2b2d241876dd643c51ca0a, type: 3}
