%YAML 1.1
%TAG !u! tag:unity3d.com,2011:
--- !u!1 &1514396963646908535
GameObject:
  m_ObjectHideFlags: 0
  m_CorrespondingSourceObject: {fileID: 0}
  m_PrefabInstance: {fileID: 0}
  m_PrefabAsset: {fileID: 0}
  serializedVersion: 6
  m_Component:
  - component: {fileID: 4062622516652413605}
  - component: {fileID: 5576293841522506111}
  m_Layer: 31
  m_Name: Cave
  m_TagString: Untagged
  m_Icon: {fileID: 0}
  m_NavMeshLayer: 0
  m_StaticEditorFlags: 0
  m_IsActive: 1
--- !u!4 &4062622516652413605
Transform:
  m_ObjectHideFlags: 0
  m_CorrespondingSourceObject: {fileID: 0}
  m_PrefabInstance: {fileID: 0}
  m_PrefabAsset: {fileID: 0}
  m_GameObject: {fileID: 1514396963646908535}
  m_LocalRotation: {x: 0, y: 0, z: 0, w: 1}
  m_LocalPosition: {x: 0, y: 0, z: 0}
  m_LocalScale: {x: 1, y: 1, z: 1}
  m_Children:
  - {fileID: 5962982092413366776}
  m_Father: {fileID: 0}
  m_RootOrder: 0
  m_LocalEulerAnglesHint: {x: 0, y: 0, z: 0}
--- !u!156049354 &5576293841522506111
Grid:
  m_ObjectHideFlags: 0
  m_CorrespondingSourceObject: {fileID: 0}
  m_PrefabInstance: {fileID: 0}
  m_PrefabAsset: {fileID: 0}
  m_GameObject: {fileID: 1514396963646908535}
  m_Enabled: 1
  m_CellSize: {x: 1, y: 1, z: 0}
  m_CellGap: {x: 0, y: 0, z: 0}
  m_CellLayout: 0
  m_CellSwizzle: 0
--- !u!1 &7051250332721292149
GameObject:
  m_ObjectHideFlags: 0
  m_CorrespondingSourceObject: {fileID: 0}
  m_PrefabInstance: {fileID: 0}
  m_PrefabAsset: {fileID: 0}
  serializedVersion: 6
  m_Component:
  - component: {fileID: 5962982092413366776}
  - component: {fileID: 1559568429255169139}
  - component: {fileID: 6961371284184477718}
  m_Layer: 31
  m_Name: Layer1
  m_TagString: Untagged
  m_Icon: {fileID: 0}
  m_NavMeshLayer: 0
  m_StaticEditorFlags: 0
  m_IsActive: 1
--- !u!4 &5962982092413366776
Transform:
  m_ObjectHideFlags: 0
  m_CorrespondingSourceObject: {fileID: 0}
  m_PrefabInstance: {fileID: 0}
  m_PrefabAsset: {fileID: 0}
  m_GameObject: {fileID: 7051250332721292149}
  m_LocalRotation: {x: -0, y: -0, z: -0, w: 1}
  m_LocalPosition: {x: 0, y: 0, z: 0}
  m_LocalScale: {x: 1, y: 1, z: 1}
  m_Children: []
  m_Father: {fileID: 4062622516652413605}
  m_RootOrder: 0
  m_LocalEulerAnglesHint: {x: 0, y: 0, z: 0}
--- !u!1839735485 &1559568429255169139
Tilemap:
  m_ObjectHideFlags: 0
  m_CorrespondingSourceObject: {fileID: 0}
  m_PrefabInstance: {fileID: 0}
  m_PrefabAsset: {fileID: 0}
  m_GameObject: {fileID: 7051250332721292149}
  m_Enabled: 1
  m_Tiles:
  - first: {x: 0, y: -9, z: 0}
    second:
      m_TileIndex: 108
      m_TileSpriteIndex: 108
      m_TileMatrixIndex: 0
      m_TileColorIndex: 0
      m_ObjectToInstantiate: {fileID: 0}
      m_TileFlags: 1
      m_ColliderType: 1
  - first: {x: 1, y: -9, z: 0}
    second:
      m_TileIndex: 109
      m_TileSpriteIndex: 109
      m_TileMatrixIndex: 0
      m_TileColorIndex: 0
      m_ObjectToInstantiate: {fileID: 0}
      m_TileFlags: 1
      m_ColliderType: 1
  - first: {x: 2, y: -9, z: 0}
    second:
      m_TileIndex: 110
      m_TileSpriteIndex: 110
      m_TileMatrixIndex: 0
      m_TileColorIndex: 0
      m_ObjectToInstantiate: {fileID: 0}
      m_TileFlags: 1
      m_ColliderType: 1
  - first: {x: 3, y: -9, z: 0}
    second:
      m_TileIndex: 111
      m_TileSpriteIndex: 111
      m_TileMatrixIndex: 0
      m_TileColorIndex: 0
      m_ObjectToInstantiate: {fileID: 0}
      m_TileFlags: 1
      m_ColliderType: 1
  - first: {x: 4, y: -9, z: 0}
    second:
      m_TileIndex: 112
      m_TileSpriteIndex: 112
      m_TileMatrixIndex: 0
      m_TileColorIndex: 0
      m_ObjectToInstantiate: {fileID: 0}
      m_TileFlags: 1
      m_ColliderType: 1
  - first: {x: 7, y: -9, z: 0}
    second:
      m_TileIndex: 113
      m_TileSpriteIndex: 113
      m_TileMatrixIndex: 0
      m_TileColorIndex: 0
      m_ObjectToInstantiate: {fileID: 0}
      m_TileFlags: 1
      m_ColliderType: 1
  - first: {x: 8, y: -9, z: 0}
    second:
      m_TileIndex: 114
      m_TileSpriteIndex: 114
      m_TileMatrixIndex: 0
      m_TileColorIndex: 0
      m_ObjectToInstantiate: {fileID: 0}
      m_TileFlags: 1
      m_ColliderType: 1
  - first: {x: 9, y: -9, z: 0}
    second:
      m_TileIndex: 115
      m_TileSpriteIndex: 115
      m_TileMatrixIndex: 0
      m_TileColorIndex: 0
      m_ObjectToInstantiate: {fileID: 0}
      m_TileFlags: 1
      m_ColliderType: 1
  - first: {x: 10, y: -9, z: 0}
    second:
      m_TileIndex: 116
      m_TileSpriteIndex: 116
      m_TileMatrixIndex: 0
      m_TileColorIndex: 0
      m_ObjectToInstantiate: {fileID: 0}
      m_TileFlags: 1
      m_ColliderType: 1
  - first: {x: 0, y: -8, z: 0}
    second:
      m_TileIndex: 97
      m_TileSpriteIndex: 97
      m_TileMatrixIndex: 0
      m_TileColorIndex: 0
      m_ObjectToInstantiate: {fileID: 0}
      m_TileFlags: 1
      m_ColliderType: 1
  - first: {x: 1, y: -8, z: 0}
    second:
      m_TileIndex: 98
      m_TileSpriteIndex: 98
      m_TileMatrixIndex: 0
      m_TileColorIndex: 0
      m_ObjectToInstantiate: {fileID: 0}
      m_TileFlags: 1
      m_ColliderType: 1
  - first: {x: 2, y: -8, z: 0}
    second:
      m_TileIndex: 99
      m_TileSpriteIndex: 99
      m_TileMatrixIndex: 0
      m_TileColorIndex: 0
      m_ObjectToInstantiate: {fileID: 0}
      m_TileFlags: 1
      m_ColliderType: 1
  - first: {x: 3, y: -8, z: 0}
    second:
      m_TileIndex: 100
      m_TileSpriteIndex: 100
      m_TileMatrixIndex: 0
      m_TileColorIndex: 0
      m_ObjectToInstantiate: {fileID: 0}
      m_TileFlags: 1
      m_ColliderType: 1
  - first: {x: 4, y: -8, z: 0}
    second:
      m_TileIndex: 101
      m_TileSpriteIndex: 101
      m_TileMatrixIndex: 0
      m_TileColorIndex: 0
      m_ObjectToInstantiate: {fileID: 0}
      m_TileFlags: 1
      m_ColliderType: 1
  - first: {x: 5, y: -8, z: 0}
    second:
      m_TileIndex: 102
      m_TileSpriteIndex: 102
      m_TileMatrixIndex: 0
      m_TileColorIndex: 0
      m_ObjectToInstantiate: {fileID: 0}
      m_TileFlags: 1
      m_ColliderType: 1
  - first: {x: 6, y: -8, z: 0}
    second:
      m_TileIndex: 103
      m_TileSpriteIndex: 103
      m_TileMatrixIndex: 0
      m_TileColorIndex: 0
      m_ObjectToInstantiate: {fileID: 0}
      m_TileFlags: 1
      m_ColliderType: 1
  - first: {x: 7, y: -8, z: 0}
    second:
      m_TileIndex: 104
      m_TileSpriteIndex: 104
      m_TileMatrixIndex: 0
      m_TileColorIndex: 0
      m_ObjectToInstantiate: {fileID: 0}
      m_TileFlags: 1
      m_ColliderType: 1
  - first: {x: 8, y: -8, z: 0}
    second:
      m_TileIndex: 105
      m_TileSpriteIndex: 105
      m_TileMatrixIndex: 0
      m_TileColorIndex: 0
      m_ObjectToInstantiate: {fileID: 0}
      m_TileFlags: 1
      m_ColliderType: 1
  - first: {x: 9, y: -8, z: 0}
    second:
      m_TileIndex: 106
      m_TileSpriteIndex: 106
      m_TileMatrixIndex: 0
      m_TileColorIndex: 0
      m_ObjectToInstantiate: {fileID: 0}
      m_TileFlags: 1
      m_ColliderType: 1
  - first: {x: 10, y: -8, z: 0}
    second:
      m_TileIndex: 107
      m_TileSpriteIndex: 107
      m_TileMatrixIndex: 0
      m_TileColorIndex: 0
      m_ObjectToInstantiate: {fileID: 0}
      m_TileFlags: 1
      m_ColliderType: 1
  - first: {x: 0, y: -7, z: 0}
    second:
      m_TileIndex: 86
      m_TileSpriteIndex: 86
      m_TileMatrixIndex: 0
      m_TileColorIndex: 0
      m_ObjectToInstantiate: {fileID: 0}
      m_TileFlags: 1
      m_ColliderType: 1
  - first: {x: 1, y: -7, z: 0}
    second:
      m_TileIndex: 87
      m_TileSpriteIndex: 87
      m_TileMatrixIndex: 0
      m_TileColorIndex: 0
      m_ObjectToInstantiate: {fileID: 0}
      m_TileFlags: 1
      m_ColliderType: 1
  - first: {x: 2, y: -7, z: 0}
    second:
      m_TileIndex: 88
      m_TileSpriteIndex: 88
      m_TileMatrixIndex: 0
      m_TileColorIndex: 0
      m_ObjectToInstantiate: {fileID: 0}
      m_TileFlags: 1
      m_ColliderType: 1
  - first: {x: 3, y: -7, z: 0}
    second:
      m_TileIndex: 89
      m_TileSpriteIndex: 89
      m_TileMatrixIndex: 0
      m_TileColorIndex: 0
      m_ObjectToInstantiate: {fileID: 0}
      m_TileFlags: 1
      m_ColliderType: 1
  - first: {x: 4, y: -7, z: 0}
    second:
      m_TileIndex: 90
      m_TileSpriteIndex: 90
      m_TileMatrixIndex: 0
      m_TileColorIndex: 0
      m_ObjectToInstantiate: {fileID: 0}
      m_TileFlags: 1
      m_ColliderType: 1
  - first: {x: 5, y: -7, z: 0}
    second:
      m_TileIndex: 91
      m_TileSpriteIndex: 91
      m_TileMatrixIndex: 0
      m_TileColorIndex: 0
      m_ObjectToInstantiate: {fileID: 0}
      m_TileFlags: 1
      m_ColliderType: 1
  - first: {x: 6, y: -7, z: 0}
    second:
      m_TileIndex: 92
      m_TileSpriteIndex: 92
      m_TileMatrixIndex: 0
      m_TileColorIndex: 0
      m_ObjectToInstantiate: {fileID: 0}
      m_TileFlags: 1
      m_ColliderType: 1
  - first: {x: 7, y: -7, z: 0}
    second:
      m_TileIndex: 93
      m_TileSpriteIndex: 93
      m_TileMatrixIndex: 0
      m_TileColorIndex: 0
      m_ObjectToInstantiate: {fileID: 0}
      m_TileFlags: 1
      m_ColliderType: 1
  - first: {x: 8, y: -7, z: 0}
    second:
      m_TileIndex: 94
      m_TileSpriteIndex: 94
      m_TileMatrixIndex: 0
      m_TileColorIndex: 0
      m_ObjectToInstantiate: {fileID: 0}
      m_TileFlags: 1
      m_ColliderType: 1
  - first: {x: 9, y: -7, z: 0}
    second:
      m_TileIndex: 95
      m_TileSpriteIndex: 95
      m_TileMatrixIndex: 0
      m_TileColorIndex: 0
      m_ObjectToInstantiate: {fileID: 0}
      m_TileFlags: 1
      m_ColliderType: 1
  - first: {x: 10, y: -7, z: 0}
    second:
      m_TileIndex: 96
      m_TileSpriteIndex: 96
      m_TileMatrixIndex: 0
      m_TileColorIndex: 0
      m_ObjectToInstantiate: {fileID: 0}
      m_TileFlags: 1
      m_ColliderType: 1
  - first: {x: 0, y: -6, z: 0}
    second:
      m_TileIndex: 70
      m_TileSpriteIndex: 70
      m_TileMatrixIndex: 0
      m_TileColorIndex: 0
      m_ObjectToInstantiate: {fileID: 0}
      m_TileFlags: 1
      m_ColliderType: 1
  - first: {x: 1, y: -6, z: 0}
    second:
      m_TileIndex: 71
      m_TileSpriteIndex: 71
      m_TileMatrixIndex: 0
      m_TileColorIndex: 0
      m_ObjectToInstantiate: {fileID: 0}
      m_TileFlags: 1
      m_ColliderType: 1
  - first: {x: 2, y: -6, z: 0}
    second:
      m_TileIndex: 72
      m_TileSpriteIndex: 72
      m_TileMatrixIndex: 0
      m_TileColorIndex: 0
      m_ObjectToInstantiate: {fileID: 0}
      m_TileFlags: 1
      m_ColliderType: 1
  - first: {x: 3, y: -6, z: 0}
    second:
      m_TileIndex: 73
      m_TileSpriteIndex: 73
      m_TileMatrixIndex: 0
      m_TileColorIndex: 0
      m_ObjectToInstantiate: {fileID: 0}
      m_TileFlags: 1
      m_ColliderType: 1
  - first: {x: 4, y: -6, z: 0}
    second:
      m_TileIndex: 74
      m_TileSpriteIndex: 74
      m_TileMatrixIndex: 0
      m_TileColorIndex: 0
      m_ObjectToInstantiate: {fileID: 0}
      m_TileFlags: 1
      m_ColliderType: 1
  - first: {x: 5, y: -6, z: 0}
    second:
      m_TileIndex: 75
      m_TileSpriteIndex: 75
      m_TileMatrixIndex: 0
      m_TileColorIndex: 0
      m_ObjectToInstantiate: {fileID: 0}
      m_TileFlags: 1
      m_ColliderType: 1
  - first: {x: 6, y: -6, z: 0}
    second:
      m_TileIndex: 76
      m_TileSpriteIndex: 76
      m_TileMatrixIndex: 0
      m_TileColorIndex: 0
      m_ObjectToInstantiate: {fileID: 0}
      m_TileFlags: 1
      m_ColliderType: 1
  - first: {x: 7, y: -6, z: 0}
    second:
      m_TileIndex: 77
      m_TileSpriteIndex: 77
      m_TileMatrixIndex: 0
      m_TileColorIndex: 0
      m_ObjectToInstantiate: {fileID: 0}
      m_TileFlags: 1
      m_ColliderType: 1
  - first: {x: 8, y: -6, z: 0}
    second:
      m_TileIndex: 78
      m_TileSpriteIndex: 78
      m_TileMatrixIndex: 0
      m_TileColorIndex: 0
      m_ObjectToInstantiate: {fileID: 0}
      m_TileFlags: 1
      m_ColliderType: 1
  - first: {x: 9, y: -6, z: 0}
    second:
      m_TileIndex: 79
      m_TileSpriteIndex: 79
      m_TileMatrixIndex: 0
      m_TileColorIndex: 0
      m_ObjectToInstantiate: {fileID: 0}
      m_TileFlags: 1
      m_ColliderType: 1
  - first: {x: 10, y: -6, z: 0}
    second:
      m_TileIndex: 80
      m_TileSpriteIndex: 80
      m_TileMatrixIndex: 0
      m_TileColorIndex: 0
      m_ObjectToInstantiate: {fileID: 0}
      m_TileFlags: 1
      m_ColliderType: 1
  - first: {x: 11, y: -6, z: 0}
    second:
      m_TileIndex: 81
      m_TileSpriteIndex: 81
      m_TileMatrixIndex: 0
      m_TileColorIndex: 0
      m_ObjectToInstantiate: {fileID: 0}
      m_TileFlags: 1
      m_ColliderType: 1
  - first: {x: 12, y: -6, z: 0}
    second:
      m_TileIndex: 82
      m_TileSpriteIndex: 82
      m_TileMatrixIndex: 0
      m_TileColorIndex: 0
      m_ObjectToInstantiate: {fileID: 0}
      m_TileFlags: 1
      m_ColliderType: 1
  - first: {x: 13, y: -6, z: 0}
    second:
      m_TileIndex: 83
      m_TileSpriteIndex: 83
      m_TileMatrixIndex: 0
      m_TileColorIndex: 0
      m_ObjectToInstantiate: {fileID: 0}
      m_TileFlags: 1
      m_ColliderType: 1
  - first: {x: 14, y: -6, z: 0}
    second:
      m_TileIndex: 84
      m_TileSpriteIndex: 84
      m_TileMatrixIndex: 0
      m_TileColorIndex: 0
      m_ObjectToInstantiate: {fileID: 0}
      m_TileFlags: 1
      m_ColliderType: 1
  - first: {x: 15, y: -6, z: 0}
    second:
      m_TileIndex: 85
      m_TileSpriteIndex: 85
      m_TileMatrixIndex: 0
      m_TileColorIndex: 0
      m_ObjectToInstantiate: {fileID: 0}
      m_TileFlags: 1
      m_ColliderType: 1
  - first: {x: 0, y: -5, z: 0}
    second:
      m_TileIndex: 54
      m_TileSpriteIndex: 54
      m_TileMatrixIndex: 0
      m_TileColorIndex: 0
      m_ObjectToInstantiate: {fileID: 0}
      m_TileFlags: 1
      m_ColliderType: 1
  - first: {x: 1, y: -5, z: 0}
    second:
      m_TileIndex: 55
      m_TileSpriteIndex: 55
      m_TileMatrixIndex: 0
      m_TileColorIndex: 0
      m_ObjectToInstantiate: {fileID: 0}
      m_TileFlags: 1
      m_ColliderType: 1
  - first: {x: 2, y: -5, z: 0}
    second:
      m_TileIndex: 56
      m_TileSpriteIndex: 56
      m_TileMatrixIndex: 0
      m_TileColorIndex: 0
      m_ObjectToInstantiate: {fileID: 0}
      m_TileFlags: 1
      m_ColliderType: 1
  - first: {x: 3, y: -5, z: 0}
    second:
      m_TileIndex: 57
      m_TileSpriteIndex: 57
      m_TileMatrixIndex: 0
      m_TileColorIndex: 0
      m_ObjectToInstantiate: {fileID: 0}
      m_TileFlags: 1
      m_ColliderType: 1
  - first: {x: 4, y: -5, z: 0}
    second:
      m_TileIndex: 58
      m_TileSpriteIndex: 58
      m_TileMatrixIndex: 0
      m_TileColorIndex: 0
      m_ObjectToInstantiate: {fileID: 0}
      m_TileFlags: 1
      m_ColliderType: 1
  - first: {x: 5, y: -5, z: 0}
    second:
      m_TileIndex: 59
      m_TileSpriteIndex: 59
      m_TileMatrixIndex: 0
      m_TileColorIndex: 0
      m_ObjectToInstantiate: {fileID: 0}
      m_TileFlags: 1
      m_ColliderType: 1
  - first: {x: 6, y: -5, z: 0}
    second:
      m_TileIndex: 60
      m_TileSpriteIndex: 60
      m_TileMatrixIndex: 0
      m_TileColorIndex: 0
      m_ObjectToInstantiate: {fileID: 0}
      m_TileFlags: 1
      m_ColliderType: 1
  - first: {x: 7, y: -5, z: 0}
    second:
      m_TileIndex: 61
      m_TileSpriteIndex: 61
      m_TileMatrixIndex: 0
      m_TileColorIndex: 0
      m_ObjectToInstantiate: {fileID: 0}
      m_TileFlags: 1
      m_ColliderType: 1
  - first: {x: 8, y: -5, z: 0}
    second:
      m_TileIndex: 62
      m_TileSpriteIndex: 62
      m_TileMatrixIndex: 0
      m_TileColorIndex: 0
      m_ObjectToInstantiate: {fileID: 0}
      m_TileFlags: 1
      m_ColliderType: 1
  - first: {x: 9, y: -5, z: 0}
    second:
      m_TileIndex: 63
      m_TileSpriteIndex: 63
      m_TileMatrixIndex: 0
      m_TileColorIndex: 0
      m_ObjectToInstantiate: {fileID: 0}
      m_TileFlags: 1
      m_ColliderType: 1
  - first: {x: 10, y: -5, z: 0}
    second:
      m_TileIndex: 64
      m_TileSpriteIndex: 64
      m_TileMatrixIndex: 0
      m_TileColorIndex: 0
      m_ObjectToInstantiate: {fileID: 0}
      m_TileFlags: 1
      m_ColliderType: 1
  - first: {x: 11, y: -5, z: 0}
    second:
      m_TileIndex: 65
      m_TileSpriteIndex: 65
      m_TileMatrixIndex: 0
      m_TileColorIndex: 0
      m_ObjectToInstantiate: {fileID: 0}
      m_TileFlags: 1
      m_ColliderType: 1
  - first: {x: 12, y: -5, z: 0}
    second:
      m_TileIndex: 66
      m_TileSpriteIndex: 66
      m_TileMatrixIndex: 0
      m_TileColorIndex: 0
      m_ObjectToInstantiate: {fileID: 0}
      m_TileFlags: 1
      m_ColliderType: 1
  - first: {x: 13, y: -5, z: 0}
    second:
      m_TileIndex: 67
      m_TileSpriteIndex: 67
      m_TileMatrixIndex: 0
      m_TileColorIndex: 0
      m_ObjectToInstantiate: {fileID: 0}
      m_TileFlags: 1
      m_ColliderType: 1
  - first: {x: 14, y: -5, z: 0}
    second:
      m_TileIndex: 68
      m_TileSpriteIndex: 68
      m_TileMatrixIndex: 0
      m_TileColorIndex: 0
      m_ObjectToInstantiate: {fileID: 0}
      m_TileFlags: 1
      m_ColliderType: 1
  - first: {x: 15, y: -5, z: 0}
    second:
      m_TileIndex: 69
      m_TileSpriteIndex: 69
      m_TileMatrixIndex: 0
      m_TileColorIndex: 0
      m_ObjectToInstantiate: {fileID: 0}
      m_TileFlags: 1
      m_ColliderType: 1
  - first: {x: 0, y: -4, z: 0}
    second:
      m_TileIndex: 38
      m_TileSpriteIndex: 38
      m_TileMatrixIndex: 0
      m_TileColorIndex: 0
      m_ObjectToInstantiate: {fileID: 0}
      m_TileFlags: 1
      m_ColliderType: 1
  - first: {x: 1, y: -4, z: 0}
    second:
      m_TileIndex: 39
      m_TileSpriteIndex: 39
      m_TileMatrixIndex: 0
      m_TileColorIndex: 0
      m_ObjectToInstantiate: {fileID: 0}
      m_TileFlags: 1
      m_ColliderType: 1
  - first: {x: 2, y: -4, z: 0}
    second:
      m_TileIndex: 40
      m_TileSpriteIndex: 40
      m_TileMatrixIndex: 0
      m_TileColorIndex: 0
      m_ObjectToInstantiate: {fileID: 0}
      m_TileFlags: 1
      m_ColliderType: 1
  - first: {x: 3, y: -4, z: 0}
    second:
      m_TileIndex: 41
      m_TileSpriteIndex: 41
      m_TileMatrixIndex: 0
      m_TileColorIndex: 0
      m_ObjectToInstantiate: {fileID: 0}
      m_TileFlags: 1
      m_ColliderType: 1
  - first: {x: 4, y: -4, z: 0}
    second:
      m_TileIndex: 42
      m_TileSpriteIndex: 42
      m_TileMatrixIndex: 0
      m_TileColorIndex: 0
      m_ObjectToInstantiate: {fileID: 0}
      m_TileFlags: 1
      m_ColliderType: 1
  - first: {x: 5, y: -4, z: 0}
    second:
      m_TileIndex: 43
      m_TileSpriteIndex: 43
      m_TileMatrixIndex: 0
      m_TileColorIndex: 0
      m_ObjectToInstantiate: {fileID: 0}
      m_TileFlags: 1
      m_ColliderType: 1
  - first: {x: 6, y: -4, z: 0}
    second:
      m_TileIndex: 44
      m_TileSpriteIndex: 44
      m_TileMatrixIndex: 0
      m_TileColorIndex: 0
      m_ObjectToInstantiate: {fileID: 0}
      m_TileFlags: 1
      m_ColliderType: 1
  - first: {x: 7, y: -4, z: 0}
    second:
      m_TileIndex: 45
      m_TileSpriteIndex: 45
      m_TileMatrixIndex: 0
      m_TileColorIndex: 0
      m_ObjectToInstantiate: {fileID: 0}
      m_TileFlags: 1
      m_ColliderType: 1
  - first: {x: 8, y: -4, z: 0}
    second:
      m_TileIndex: 46
      m_TileSpriteIndex: 46
      m_TileMatrixIndex: 0
      m_TileColorIndex: 0
      m_ObjectToInstantiate: {fileID: 0}
      m_TileFlags: 1
      m_ColliderType: 1
  - first: {x: 9, y: -4, z: 0}
    second:
      m_TileIndex: 47
      m_TileSpriteIndex: 47
      m_TileMatrixIndex: 0
      m_TileColorIndex: 0
      m_ObjectToInstantiate: {fileID: 0}
      m_TileFlags: 1
      m_ColliderType: 1
  - first: {x: 10, y: -4, z: 0}
    second:
      m_TileIndex: 48
      m_TileSpriteIndex: 48
      m_TileMatrixIndex: 0
      m_TileColorIndex: 0
      m_ObjectToInstantiate: {fileID: 0}
      m_TileFlags: 1
      m_ColliderType: 1
  - first: {x: 11, y: -4, z: 0}
    second:
      m_TileIndex: 49
      m_TileSpriteIndex: 49
      m_TileMatrixIndex: 0
      m_TileColorIndex: 0
      m_ObjectToInstantiate: {fileID: 0}
      m_TileFlags: 1
      m_ColliderType: 1
  - first: {x: 12, y: -4, z: 0}
    second:
      m_TileIndex: 50
      m_TileSpriteIndex: 50
      m_TileMatrixIndex: 0
      m_TileColorIndex: 0
      m_ObjectToInstantiate: {fileID: 0}
      m_TileFlags: 1
      m_ColliderType: 1
  - first: {x: 13, y: -4, z: 0}
    second:
      m_TileIndex: 51
      m_TileSpriteIndex: 51
      m_TileMatrixIndex: 0
      m_TileColorIndex: 0
      m_ObjectToInstantiate: {fileID: 0}
      m_TileFlags: 1
      m_ColliderType: 1
  - first: {x: 14, y: -4, z: 0}
    second:
      m_TileIndex: 52
      m_TileSpriteIndex: 52
      m_TileMatrixIndex: 0
      m_TileColorIndex: 0
      m_ObjectToInstantiate: {fileID: 0}
      m_TileFlags: 1
      m_ColliderType: 1
  - first: {x: 15, y: -4, z: 0}
    second:
      m_TileIndex: 53
      m_TileSpriteIndex: 53
      m_TileMatrixIndex: 0
      m_TileColorIndex: 0
      m_ObjectToInstantiate: {fileID: 0}
      m_TileFlags: 1
      m_ColliderType: 1
  - first: {x: 0, y: -3, z: 0}
    second:
      m_TileIndex: 30
      m_TileSpriteIndex: 30
      m_TileMatrixIndex: 0
      m_TileColorIndex: 0
      m_ObjectToInstantiate: {fileID: 0}
      m_TileFlags: 1
      m_ColliderType: 1
  - first: {x: 1, y: -3, z: 0}
    second:
      m_TileIndex: 31
      m_TileSpriteIndex: 31
      m_TileMatrixIndex: 0
      m_TileColorIndex: 0
      m_ObjectToInstantiate: {fileID: 0}
      m_TileFlags: 1
      m_ColliderType: 1
  - first: {x: 2, y: -3, z: 0}
    second:
      m_TileIndex: 32
      m_TileSpriteIndex: 32
      m_TileMatrixIndex: 0
      m_TileColorIndex: 0
      m_ObjectToInstantiate: {fileID: 0}
      m_TileFlags: 1
      m_ColliderType: 1
  - first: {x: 3, y: -3, z: 0}
    second:
      m_TileIndex: 33
      m_TileSpriteIndex: 33
      m_TileMatrixIndex: 0
      m_TileColorIndex: 0
      m_ObjectToInstantiate: {fileID: 0}
      m_TileFlags: 1
      m_ColliderType: 1
  - first: {x: 4, y: -3, z: 0}
    second:
      m_TileIndex: 34
      m_TileSpriteIndex: 34
      m_TileMatrixIndex: 0
      m_TileColorIndex: 0
      m_ObjectToInstantiate: {fileID: 0}
      m_TileFlags: 1
      m_ColliderType: 1
  - first: {x: 5, y: -3, z: 0}
    second:
      m_TileIndex: 35
      m_TileSpriteIndex: 35
      m_TileMatrixIndex: 0
      m_TileColorIndex: 0
      m_ObjectToInstantiate: {fileID: 0}
      m_TileFlags: 1
      m_ColliderType: 1
  - first: {x: 6, y: -3, z: 0}
    second:
      m_TileIndex: 36
      m_TileSpriteIndex: 36
      m_TileMatrixIndex: 0
      m_TileColorIndex: 0
      m_ObjectToInstantiate: {fileID: 0}
      m_TileFlags: 1
      m_ColliderType: 1
  - first: {x: 7, y: -3, z: 0}
    second:
      m_TileIndex: 37
      m_TileSpriteIndex: 37
      m_TileMatrixIndex: 0
      m_TileColorIndex: 0
      m_ObjectToInstantiate: {fileID: 0}
      m_TileFlags: 1
      m_ColliderType: 1
  - first: {x: 0, y: -2, z: 0}
    second:
      m_TileIndex: 20
      m_TileSpriteIndex: 20
      m_TileMatrixIndex: 0
      m_TileColorIndex: 0
      m_ObjectToInstantiate: {fileID: 0}
      m_TileFlags: 1
      m_ColliderType: 1
  - first: {x: 1, y: -2, z: 0}
    second:
      m_TileIndex: 21
      m_TileSpriteIndex: 21
      m_TileMatrixIndex: 0
      m_TileColorIndex: 0
      m_ObjectToInstantiate: {fileID: 0}
      m_TileFlags: 1
      m_ColliderType: 1
  - first: {x: 2, y: -2, z: 0}
    second:
      m_TileIndex: 22
      m_TileSpriteIndex: 22
      m_TileMatrixIndex: 0
      m_TileColorIndex: 0
      m_ObjectToInstantiate: {fileID: 0}
      m_TileFlags: 1
      m_ColliderType: 1
  - first: {x: 3, y: -2, z: 0}
    second:
      m_TileIndex: 23
      m_TileSpriteIndex: 23
      m_TileMatrixIndex: 0
      m_TileColorIndex: 0
      m_ObjectToInstantiate: {fileID: 0}
      m_TileFlags: 1
      m_ColliderType: 1
  - first: {x: 4, y: -2, z: 0}
    second:
      m_TileIndex: 24
      m_TileSpriteIndex: 24
      m_TileMatrixIndex: 0
      m_TileColorIndex: 0
      m_ObjectToInstantiate: {fileID: 0}
      m_TileFlags: 1
      m_ColliderType: 1
  - first: {x: 5, y: -2, z: 0}
    second:
      m_TileIndex: 25
      m_TileSpriteIndex: 25
      m_TileMatrixIndex: 0
      m_TileColorIndex: 0
      m_ObjectToInstantiate: {fileID: 0}
      m_TileFlags: 1
      m_ColliderType: 1
  - first: {x: 6, y: -2, z: 0}
    second:
      m_TileIndex: 26
      m_TileSpriteIndex: 26
      m_TileMatrixIndex: 0
      m_TileColorIndex: 0
      m_ObjectToInstantiate: {fileID: 0}
      m_TileFlags: 1
      m_ColliderType: 1
  - first: {x: 7, y: -2, z: 0}
    second:
      m_TileIndex: 27
      m_TileSpriteIndex: 27
      m_TileMatrixIndex: 0
      m_TileColorIndex: 0
      m_ObjectToInstantiate: {fileID: 0}
      m_TileFlags: 1
      m_ColliderType: 1
  - first: {x: 8, y: -2, z: 0}
    second:
      m_TileIndex: 28
      m_TileSpriteIndex: 28
      m_TileMatrixIndex: 0
      m_TileColorIndex: 0
      m_ObjectToInstantiate: {fileID: 0}
      m_TileFlags: 1
      m_ColliderType: 1
  - first: {x: 9, y: -2, z: 0}
    second:
      m_TileIndex: 29
      m_TileSpriteIndex: 29
      m_TileMatrixIndex: 0
      m_TileColorIndex: 0
      m_ObjectToInstantiate: {fileID: 0}
      m_TileFlags: 1
      m_ColliderType: 1
  - first: {x: 0, y: -1, z: 0}
    second:
      m_TileIndex: 10
      m_TileSpriteIndex: 10
      m_TileMatrixIndex: 0
      m_TileColorIndex: 0
      m_ObjectToInstantiate: {fileID: 0}
      m_TileFlags: 1
      m_ColliderType: 1
  - first: {x: 1, y: -1, z: 0}
    second:
      m_TileIndex: 11
      m_TileSpriteIndex: 11
      m_TileMatrixIndex: 0
      m_TileColorIndex: 0
      m_ObjectToInstantiate: {fileID: 0}
      m_TileFlags: 1
      m_ColliderType: 1
  - first: {x: 2, y: -1, z: 0}
    second:
      m_TileIndex: 12
      m_TileSpriteIndex: 12
      m_TileMatrixIndex: 0
      m_TileColorIndex: 0
      m_ObjectToInstantiate: {fileID: 0}
      m_TileFlags: 1
      m_ColliderType: 1
  - first: {x: 3, y: -1, z: 0}
    second:
      m_TileIndex: 13
      m_TileSpriteIndex: 13
      m_TileMatrixIndex: 0
      m_TileColorIndex: 0
      m_ObjectToInstantiate: {fileID: 0}
      m_TileFlags: 1
      m_ColliderType: 1
  - first: {x: 4, y: -1, z: 0}
    second:
      m_TileIndex: 14
      m_TileSpriteIndex: 14
      m_TileMatrixIndex: 0
      m_TileColorIndex: 0
      m_ObjectToInstantiate: {fileID: 0}
      m_TileFlags: 1
      m_ColliderType: 1
  - first: {x: 5, y: -1, z: 0}
    second:
      m_TileIndex: 15
      m_TileSpriteIndex: 15
      m_TileMatrixIndex: 0
      m_TileColorIndex: 0
      m_ObjectToInstantiate: {fileID: 0}
      m_TileFlags: 1
      m_ColliderType: 1
  - first: {x: 6, y: -1, z: 0}
    second:
      m_TileIndex: 16
      m_TileSpriteIndex: 16
      m_TileMatrixIndex: 0
      m_TileColorIndex: 0
      m_ObjectToInstantiate: {fileID: 0}
      m_TileFlags: 1
      m_ColliderType: 1
  - first: {x: 7, y: -1, z: 0}
    second:
      m_TileIndex: 17
      m_TileSpriteIndex: 17
      m_TileMatrixIndex: 0
      m_TileColorIndex: 0
      m_ObjectToInstantiate: {fileID: 0}
      m_TileFlags: 1
      m_ColliderType: 1
  - first: {x: 8, y: -1, z: 0}
    second:
      m_TileIndex: 18
      m_TileSpriteIndex: 18
      m_TileMatrixIndex: 0
      m_TileColorIndex: 0
      m_ObjectToInstantiate: {fileID: 0}
      m_TileFlags: 1
      m_ColliderType: 1
  - first: {x: 9, y: -1, z: 0}
    second:
      m_TileIndex: 19
      m_TileSpriteIndex: 19
      m_TileMatrixIndex: 0
      m_TileColorIndex: 0
      m_ObjectToInstantiate: {fileID: 0}
      m_TileFlags: 1
      m_ColliderType: 1
  - first: {x: 0, y: 0, z: 0}
    second:
      m_TileIndex: 0
      m_TileSpriteIndex: 0
      m_TileMatrixIndex: 0
      m_TileColorIndex: 0
      m_ObjectToInstantiate: {fileID: 0}
      m_TileFlags: 1
      m_ColliderType: 1
  - first: {x: 1, y: 0, z: 0}
    second:
      m_TileIndex: 1
      m_TileSpriteIndex: 1
      m_TileMatrixIndex: 0
      m_TileColorIndex: 0
      m_ObjectToInstantiate: {fileID: 0}
      m_TileFlags: 1
      m_ColliderType: 1
  - first: {x: 2, y: 0, z: 0}
    second:
      m_TileIndex: 2
      m_TileSpriteIndex: 2
      m_TileMatrixIndex: 0
      m_TileColorIndex: 0
      m_ObjectToInstantiate: {fileID: 0}
      m_TileFlags: 1
      m_ColliderType: 1
  - first: {x: 3, y: 0, z: 0}
    second:
      m_TileIndex: 3
      m_TileSpriteIndex: 3
      m_TileMatrixIndex: 0
      m_TileColorIndex: 0
      m_ObjectToInstantiate: {fileID: 0}
      m_TileFlags: 1
      m_ColliderType: 1
  - first: {x: 4, y: 0, z: 0}
    second:
      m_TileIndex: 4
      m_TileSpriteIndex: 4
      m_TileMatrixIndex: 0
      m_TileColorIndex: 0
      m_ObjectToInstantiate: {fileID: 0}
      m_TileFlags: 1
      m_ColliderType: 1
  - first: {x: 5, y: 0, z: 0}
    second:
      m_TileIndex: 5
      m_TileSpriteIndex: 5
      m_TileMatrixIndex: 0
      m_TileColorIndex: 0
      m_ObjectToInstantiate: {fileID: 0}
      m_TileFlags: 1
      m_ColliderType: 1
  - first: {x: 6, y: 0, z: 0}
    second:
      m_TileIndex: 6
      m_TileSpriteIndex: 6
      m_TileMatrixIndex: 0
      m_TileColorIndex: 0
      m_ObjectToInstantiate: {fileID: 0}
      m_TileFlags: 1
      m_ColliderType: 1
  - first: {x: 7, y: 0, z: 0}
    second:
      m_TileIndex: 7
      m_TileSpriteIndex: 7
      m_TileMatrixIndex: 0
      m_TileColorIndex: 0
      m_ObjectToInstantiate: {fileID: 0}
      m_TileFlags: 1
      m_ColliderType: 1
  - first: {x: 8, y: 0, z: 0}
    second:
      m_TileIndex: 8
      m_TileSpriteIndex: 8
      m_TileMatrixIndex: 0
      m_TileColorIndex: 0
      m_ObjectToInstantiate: {fileID: 0}
      m_TileFlags: 1
      m_ColliderType: 1
  - first: {x: 9, y: 0, z: 0}
    second:
      m_TileIndex: 9
      m_TileSpriteIndex: 9
      m_TileMatrixIndex: 0
      m_TileColorIndex: 0
      m_ObjectToInstantiate: {fileID: 0}
      m_TileFlags: 1
      m_ColliderType: 1
  m_AnimatedTiles: {}
  m_TileAssetArray:
  - m_RefCount: 1
    m_Data: {fileID: 11400000, guid: 0a465048e89c9a540923d16bebc345a9, type: 2}
  - m_RefCount: 1
    m_Data: {fileID: 11400000, guid: 54c969419971df14887f439421032472, type: 2}
  - m_RefCount: 1
    m_Data: {fileID: 11400000, guid: 31cc295ae6b05134195628cd92c6199a, type: 2}
  - m_RefCount: 1
    m_Data: {fileID: 11400000, guid: f7cca21fea7e43b4b8f245962f2ba6dc, type: 2}
  - m_RefCount: 1
    m_Data: {fileID: 11400000, guid: 6b90b767d8fd115439c4dfdf34a6c11e, type: 2}
  - m_RefCount: 1
    m_Data: {fileID: 11400000, guid: d17f03d3f74dd6741bb56cf84254eb79, type: 2}
  - m_RefCount: 1
    m_Data: {fileID: 11400000, guid: 112b4d4f50acde7418b0768ab29c66cd, type: 2}
  - m_RefCount: 1
    m_Data: {fileID: 11400000, guid: c19099b76fe345d4aa4aec0f00b6f028, type: 2}
  - m_RefCount: 1
    m_Data: {fileID: 11400000, guid: c004618787447f84bbabff823442e667, type: 2}
  - m_RefCount: 1
    m_Data: {fileID: 11400000, guid: e98b94630b5409641ba57bceeb2e6caa, type: 2}
  - m_RefCount: 1
    m_Data: {fileID: 11400000, guid: d582ce26a39d7864d9e4089a7192739e, type: 2}
  - m_RefCount: 1
    m_Data: {fileID: 11400000, guid: 9b4295b84b7c1624481821e7d3ee4833, type: 2}
  - m_RefCount: 1
    m_Data: {fileID: 11400000, guid: fb96c3120ef079148a00cb372288bc02, type: 2}
  - m_RefCount: 1
    m_Data: {fileID: 11400000, guid: d5708b89c424abf4f93dfa01a87da5f7, type: 2}
  - m_RefCount: 1
    m_Data: {fileID: 11400000, guid: a505b2d9bf65e0a4da742037472dbe1e, type: 2}
  - m_RefCount: 1
    m_Data: {fileID: 11400000, guid: 103e632c3cad6f94baa57d5ba695ad8d, type: 2}
  - m_RefCount: 1
    m_Data: {fileID: 11400000, guid: 766e15de267bca4458a494dc42528620, type: 2}
  - m_RefCount: 1
    m_Data: {fileID: 11400000, guid: daf75df26027cbb4bb5b1d3267ce4d0a, type: 2}
  - m_RefCount: 1
    m_Data: {fileID: 11400000, guid: 6b76a2844a4f3db49883d06b77e8f79a, type: 2}
  - m_RefCount: 1
    m_Data: {fileID: 11400000, guid: 6edd324577b5486498ae2c57df361c16, type: 2}
  - m_RefCount: 1
    m_Data: {fileID: 11400000, guid: b7c26badef43bb440a0898eb37f9dd82, type: 2}
  - m_RefCount: 1
    m_Data: {fileID: 11400000, guid: 50b46d2c292f6ae4fba8813059409965, type: 2}
  - m_RefCount: 1
    m_Data: {fileID: 11400000, guid: d9f33d8e53fcf7c4c99e2993f582487f, type: 2}
  - m_RefCount: 1
    m_Data: {fileID: 11400000, guid: 935eed12a3a7db14b9eb9959a81e3150, type: 2}
  - m_RefCount: 1
    m_Data: {fileID: 11400000, guid: ff35514bdf73ce44386fdf95fafeb8e5, type: 2}
  - m_RefCount: 1
    m_Data: {fileID: 11400000, guid: 389a20c76746c4b4f9d08b7e8400fdb9, type: 2}
  - m_RefCount: 1
    m_Data: {fileID: 11400000, guid: 6e4ef3d6154e69948bef993cb76d8907, type: 2}
  - m_RefCount: 1
    m_Data: {fileID: 11400000, guid: 7c5d5340cc1682644a5a83f161387484, type: 2}
  - m_RefCount: 1
    m_Data: {fileID: 11400000, guid: ef5a8ed490f3d184797e97b85ed70563, type: 2}
  - m_RefCount: 1
    m_Data: {fileID: 11400000, guid: 0f78a05b404f9b14a9b2c1bd94761de2, type: 2}
  - m_RefCount: 1
    m_Data: {fileID: 11400000, guid: 0250a4f67bedc8d458631bb02a97990a, type: 2}
  - m_RefCount: 1
    m_Data: {fileID: 11400000, guid: 278212b8a7b142b429f9320cfa8599b0, type: 2}
  - m_RefCount: 1
    m_Data: {fileID: 11400000, guid: a1dc8dfa63222ec4e95fcc97249dcce5, type: 2}
  - m_RefCount: 1
    m_Data: {fileID: 11400000, guid: 578782f73adbf544c807a134c06f6bd8, type: 2}
  - m_RefCount: 1
    m_Data: {fileID: 11400000, guid: 67f9582a85785e44e8f639110179af4a, type: 2}
  - m_RefCount: 1
    m_Data: {fileID: 11400000, guid: 2b6680c1fa44b594e9fdc0df0a3483f4, type: 2}
  - m_RefCount: 1
    m_Data: {fileID: 11400000, guid: 8e7a4b0e80b0097448399fa5e44ae423, type: 2}
  - m_RefCount: 1
    m_Data: {fileID: 11400000, guid: 7c5d6e2ae71f752498bb22900328f68f, type: 2}
  - m_RefCount: 1
    m_Data: {fileID: 11400000, guid: 9de0683721804f54e9db1f4e040dd5df, type: 2}
  - m_RefCount: 1
    m_Data: {fileID: 11400000, guid: 46a007ca00984d64cbde41d2f2377158, type: 2}
  - m_RefCount: 1
    m_Data: {fileID: 11400000, guid: 3f96f9a21109c7a498b51340e162faa5, type: 2}
  - m_RefCount: 1
    m_Data: {fileID: 11400000, guid: dd8af2ee1a14b564e84df01f962bb340, type: 2}
  - m_RefCount: 1
    m_Data: {fileID: 11400000, guid: 6549fc4d8290a0e4d9f145fc470f92eb, type: 2}
  - m_RefCount: 1
    m_Data: {fileID: 11400000, guid: fbd0d012e31e15849a8c571a1beeabd0, type: 2}
  - m_RefCount: 1
    m_Data: {fileID: 11400000, guid: 6524007f64a5c1549b90e818d865197c, type: 2}
  - m_RefCount: 1
    m_Data: {fileID: 11400000, guid: 96c6047bbc7ace54c90a6e26a994aca7, type: 2}
  - m_RefCount: 1
    m_Data: {fileID: 11400000, guid: 6c2e2e96dd9edd34a907f6dd9f15a75a, type: 2}
  - m_RefCount: 1
    m_Data: {fileID: 11400000, guid: ea82f4b7993c440438a0a9a91c9b0e80, type: 2}
  - m_RefCount: 1
    m_Data: {fileID: 11400000, guid: fe638944de943c243b4df8008fbf9770, type: 2}
  - m_RefCount: 1
    m_Data: {fileID: 11400000, guid: 79a78decdfd035449bc6bbd292e945b9, type: 2}
  - m_RefCount: 1
    m_Data: {fileID: 11400000, guid: 4b2299a4681ae3a4bacac07e3008e986, type: 2}
  - m_RefCount: 1
    m_Data: {fileID: 11400000, guid: 86f1cef84c651a9489d76cfaa7d9f990, type: 2}
  - m_RefCount: 1
    m_Data: {fileID: 11400000, guid: 03c751e4fa7f6614785294467479cb80, type: 2}
  - m_RefCount: 1
    m_Data: {fileID: 11400000, guid: f88c73fd3d5210948ab9b251c2f149b4, type: 2}
  - m_RefCount: 1
    m_Data: {fileID: 11400000, guid: 42ab392d1a158d048abdeb7d5f28d0da, type: 2}
  - m_RefCount: 1
    m_Data: {fileID: 11400000, guid: 15180610ba4274b4f93843d922a4e877, type: 2}
  - m_RefCount: 1
    m_Data: {fileID: 11400000, guid: fd5112aa4d26fda42ae1c28c8a23e54b, type: 2}
  - m_RefCount: 1
    m_Data: {fileID: 11400000, guid: f93569afb92880a42996eed12132bbb4, type: 2}
  - m_RefCount: 1
    m_Data: {fileID: 11400000, guid: a0fb003b22f15f74caaa9960022e7303, type: 2}
  - m_RefCount: 1
    m_Data: {fileID: 11400000, guid: 51837d4e2d4e0124baee8d683d4e48aa, type: 2}
  - m_RefCount: 1
    m_Data: {fileID: 11400000, guid: 97b4907dbac8aab419d2dc16b5ccaf0b, type: 2}
  - m_RefCount: 1
    m_Data: {fileID: 11400000, guid: a7dfdd21e81180b4399fe9410e39ff93, type: 2}
  - m_RefCount: 1
    m_Data: {fileID: 11400000, guid: e08a5bf96f77e17458e2788fc8b528dd, type: 2}
  - m_RefCount: 1
    m_Data: {fileID: 11400000, guid: 09ab4ee48b008d4419ed798c2dd14aee, type: 2}
  - m_RefCount: 1
    m_Data: {fileID: 11400000, guid: 1bfac7bba0e17d24486fdf4b95fa8e03, type: 2}
  - m_RefCount: 1
    m_Data: {fileID: 11400000, guid: cd8c5af1ba1ac7f4bb9debb358822a83, type: 2}
  - m_RefCount: 1
    m_Data: {fileID: 11400000, guid: 57c318e0ebffe444abd54b29d17ce710, type: 2}
  - m_RefCount: 1
    m_Data: {fileID: 11400000, guid: c71424a10cbfbd04683469dfd9dd6360, type: 2}
  - m_RefCount: 1
    m_Data: {fileID: 11400000, guid: 1eddf6fa8c6e2644c84ab50304dfcb82, type: 2}
  - m_RefCount: 1
    m_Data: {fileID: 11400000, guid: 6d63346774e0a8541aa66eaf23af8cd0, type: 2}
  - m_RefCount: 1
    m_Data: {fileID: 11400000, guid: dea437e10f35072409c81d5d88ec2628, type: 2}
  - m_RefCount: 1
    m_Data: {fileID: 11400000, guid: fab76e7f5419e8a4db7356d86be97c85, type: 2}
  - m_RefCount: 1
    m_Data: {fileID: 11400000, guid: 1abfeca980fef284e9ba302543de89e6, type: 2}
  - m_RefCount: 1
    m_Data: {fileID: 11400000, guid: 9b1d5a2edbccc7e4f8f5f36ecdc1e85c, type: 2}
  - m_RefCount: 1
    m_Data: {fileID: 11400000, guid: d66289526f6bbad44b871eb29b6ac3f8, type: 2}
  - m_RefCount: 1
    m_Data: {fileID: 11400000, guid: b35e80b63c4705a479a3e132fbdf3e44, type: 2}
  - m_RefCount: 1
    m_Data: {fileID: 11400000, guid: 6d8da4caef4d54e4c8435227220b8268, type: 2}
  - m_RefCount: 1
    m_Data: {fileID: 11400000, guid: ca2354b426454444686cce9ce67f8be4, type: 2}
  - m_RefCount: 1
    m_Data: {fileID: 11400000, guid: 0f7830d5583298e41b466613275f0c96, type: 2}
  - m_RefCount: 1
    m_Data: {fileID: 11400000, guid: d70c99abb9b041c469eebcf82c467d58, type: 2}
  - m_RefCount: 1
    m_Data: {fileID: 11400000, guid: 79eba4ded3ea26e4cbf9074b8e472f16, type: 2}
  - m_RefCount: 1
    m_Data: {fileID: 11400000, guid: dc56d28a61cb1884da6db232c9b5356a, type: 2}
  - m_RefCount: 1
    m_Data: {fileID: 11400000, guid: 5a0e07797fefa1b42b29f3dc8d6541dc, type: 2}
  - m_RefCount: 1
    m_Data: {fileID: 11400000, guid: 81ff725a1e0d6174ebd425a2c2179010, type: 2}
  - m_RefCount: 1
    m_Data: {fileID: 11400000, guid: 127d8d2bb030cc041b912311846434ae, type: 2}
  - m_RefCount: 1
    m_Data: {fileID: 11400000, guid: 7a6f5b74331ebb34996caee6cd6d7296, type: 2}
  - m_RefCount: 1
    m_Data: {fileID: 11400000, guid: 839d1eb323fa9ae43896151cb1968092, type: 2}
  - m_RefCount: 1
    m_Data: {fileID: 11400000, guid: cf39736c1eba7a64793c253fbb8c2816, type: 2}
  - m_RefCount: 1
    m_Data: {fileID: 11400000, guid: 824dd1efd0416ef40ad756b1c0d445ba, type: 2}
  - m_RefCount: 1
    m_Data: {fileID: 11400000, guid: 7e5337c0415c4634d945bb90609ce1f4, type: 2}
  - m_RefCount: 1
    m_Data: {fileID: 11400000, guid: 928caaf2e76fe47468f854dab048868b, type: 2}
  - m_RefCount: 1
    m_Data: {fileID: 11400000, guid: 39eb36444013f2c48bc4dfdf342a47b9, type: 2}
  - m_RefCount: 1
    m_Data: {fileID: 11400000, guid: f4b8df21ecbf03644ba8b3d9133262da, type: 2}
  - m_RefCount: 1
    m_Data: {fileID: 11400000, guid: 087105807b1ffe74dad8d7f380fb4af5, type: 2}
  - m_RefCount: 1
    m_Data: {fileID: 11400000, guid: 58c270c22575881458ddd1640e26e959, type: 2}
  - m_RefCount: 1
    m_Data: {fileID: 11400000, guid: 6db3d173fc0375b42ad51fb65cd44508, type: 2}
  - m_RefCount: 1
    m_Data: {fileID: 11400000, guid: 480649423511d184d8ba3a7bf2b863ed, type: 2}
  - m_RefCount: 1
    m_Data: {fileID: 11400000, guid: a82fd4c94b63660408f7a9328cce59d6, type: 2}
  - m_RefCount: 1
    m_Data: {fileID: 11400000, guid: 77dc70252212d1441af96b09f5d5588b, type: 2}
  - m_RefCount: 1
    m_Data: {fileID: 11400000, guid: d9714c0822b3abe4da295493846e99a8, type: 2}
  - m_RefCount: 1
    m_Data: {fileID: 11400000, guid: 475187b2b339e6144bcee2a24268ce2f, type: 2}
  - m_RefCount: 1
    m_Data: {fileID: 11400000, guid: 8ec096ba590a8a24f830d32056cddb69, type: 2}
  - m_RefCount: 1
    m_Data: {fileID: 11400000, guid: 90001c99271964747a8b8d5b8bda2b86, type: 2}
  - m_RefCount: 1
    m_Data: {fileID: 11400000, guid: 96985d013858cbd45b23fa5d451b12c3, type: 2}
  - m_RefCount: 1
    m_Data: {fileID: 11400000, guid: 919445bcb67445148b53c48959010a0f, type: 2}
  - m_RefCount: 1
    m_Data: {fileID: 11400000, guid: 25d8bbdf0aae5da41a95b7bd333ab473, type: 2}
  - m_RefCount: 1
    m_Data: {fileID: 11400000, guid: 096360159dc8c12409454935342a7e98, type: 2}
  - m_RefCount: 1
    m_Data: {fileID: 11400000, guid: 0ca657650caade94f8afe16993a15c5e, type: 2}
  - m_RefCount: 1
    m_Data: {fileID: 11400000, guid: 3218878e20bcba246a0925104846931d, type: 2}
  - m_RefCount: 1
    m_Data: {fileID: 11400000, guid: 5924673ef34d48d4ea2dd9f117f5c85c, type: 2}
  - m_RefCount: 1
    m_Data: {fileID: 11400000, guid: 1b07b441f7c220840ae9a0c43a5a95f9, type: 2}
  - m_RefCount: 1
    m_Data: {fileID: 11400000, guid: c23c6d6c950f697459fda12c4b73d43d, type: 2}
  - m_RefCount: 1
    m_Data: {fileID: 11400000, guid: 584d386520a742143a6c327e48ccf92a, type: 2}
  - m_RefCount: 1
    m_Data: {fileID: 11400000, guid: 9c1c572244047e4419cef6f2450e6bd5, type: 2}
  - m_RefCount: 1
    m_Data: {fileID: 11400000, guid: 0ddf55c26e0251144a6df0dfb2b22383, type: 2}
  - m_RefCount: 1
    m_Data: {fileID: 11400000, guid: 992856e6ebf9b5940954ab9cc1825356, type: 2}
  - m_RefCount: 1
    m_Data: {fileID: 11400000, guid: edfd603c242329643bfcde8b4eeaef4f, type: 2}
  m_TileSpriteArray:
  - m_RefCount: 1
    m_Data: {fileID: 21300000, guid: 520537376702ea646ab651b29aca7333, type: 3}
  - m_RefCount: 1
    m_Data: {fileID: 21300002, guid: 520537376702ea646ab651b29aca7333, type: 3}
  - m_RefCount: 1
    m_Data: {fileID: 21300004, guid: 520537376702ea646ab651b29aca7333, type: 3}
  - m_RefCount: 1
    m_Data: {fileID: 21300006, guid: 520537376702ea646ab651b29aca7333, type: 3}
  - m_RefCount: 1
    m_Data: {fileID: 21300008, guid: 520537376702ea646ab651b29aca7333, type: 3}
  - m_RefCount: 1
    m_Data: {fileID: 21300010, guid: 520537376702ea646ab651b29aca7333, type: 3}
  - m_RefCount: 1
    m_Data: {fileID: 21300012, guid: 520537376702ea646ab651b29aca7333, type: 3}
  - m_RefCount: 1
    m_Data: {fileID: 21300014, guid: 520537376702ea646ab651b29aca7333, type: 3}
  - m_RefCount: 1
    m_Data: {fileID: 21300016, guid: 520537376702ea646ab651b29aca7333, type: 3}
  - m_RefCount: 1
    m_Data: {fileID: 21300018, guid: 520537376702ea646ab651b29aca7333, type: 3}
  - m_RefCount: 1
    m_Data: {fileID: 21300020, guid: 520537376702ea646ab651b29aca7333, type: 3}
  - m_RefCount: 1
    m_Data: {fileID: 21300022, guid: 520537376702ea646ab651b29aca7333, type: 3}
  - m_RefCount: 1
    m_Data: {fileID: 21300024, guid: 520537376702ea646ab651b29aca7333, type: 3}
  - m_RefCount: 1
    m_Data: {fileID: 21300026, guid: 520537376702ea646ab651b29aca7333, type: 3}
  - m_RefCount: 1
    m_Data: {fileID: 21300028, guid: 520537376702ea646ab651b29aca7333, type: 3}
  - m_RefCount: 1
    m_Data: {fileID: 21300030, guid: 520537376702ea646ab651b29aca7333, type: 3}
  - m_RefCount: 1
    m_Data: {fileID: 21300032, guid: 520537376702ea646ab651b29aca7333, type: 3}
  - m_RefCount: 1
    m_Data: {fileID: 21300034, guid: 520537376702ea646ab651b29aca7333, type: 3}
  - m_RefCount: 1
    m_Data: {fileID: 21300036, guid: 520537376702ea646ab651b29aca7333, type: 3}
  - m_RefCount: 1
    m_Data: {fileID: 21300038, guid: 520537376702ea646ab651b29aca7333, type: 3}
  - m_RefCount: 1
    m_Data: {fileID: 21300040, guid: 520537376702ea646ab651b29aca7333, type: 3}
  - m_RefCount: 1
    m_Data: {fileID: 21300042, guid: 520537376702ea646ab651b29aca7333, type: 3}
  - m_RefCount: 1
    m_Data: {fileID: 21300044, guid: 520537376702ea646ab651b29aca7333, type: 3}
  - m_RefCount: 1
    m_Data: {fileID: 21300046, guid: 520537376702ea646ab651b29aca7333, type: 3}
  - m_RefCount: 1
    m_Data: {fileID: 21300048, guid: 520537376702ea646ab651b29aca7333, type: 3}
  - m_RefCount: 1
    m_Data: {fileID: 21300050, guid: 520537376702ea646ab651b29aca7333, type: 3}
  - m_RefCount: 1
    m_Data: {fileID: 21300052, guid: 520537376702ea646ab651b29aca7333, type: 3}
  - m_RefCount: 1
    m_Data: {fileID: 21300054, guid: 520537376702ea646ab651b29aca7333, type: 3}
  - m_RefCount: 1
    m_Data: {fileID: 21300056, guid: 520537376702ea646ab651b29aca7333, type: 3}
  - m_RefCount: 1
    m_Data: {fileID: 21300058, guid: 520537376702ea646ab651b29aca7333, type: 3}
  - m_RefCount: 1
    m_Data: {fileID: 21300060, guid: 520537376702ea646ab651b29aca7333, type: 3}
  - m_RefCount: 1
    m_Data: {fileID: 21300062, guid: 520537376702ea646ab651b29aca7333, type: 3}
  - m_RefCount: 1
    m_Data: {fileID: 21300064, guid: 520537376702ea646ab651b29aca7333, type: 3}
  - m_RefCount: 1
    m_Data: {fileID: 21300066, guid: 520537376702ea646ab651b29aca7333, type: 3}
  - m_RefCount: 1
    m_Data: {fileID: 21300068, guid: 520537376702ea646ab651b29aca7333, type: 3}
  - m_RefCount: 1
    m_Data: {fileID: 21300070, guid: 520537376702ea646ab651b29aca7333, type: 3}
  - m_RefCount: 1
    m_Data: {fileID: 21300072, guid: 520537376702ea646ab651b29aca7333, type: 3}
  - m_RefCount: 1
    m_Data: {fileID: 21300074, guid: 520537376702ea646ab651b29aca7333, type: 3}
  - m_RefCount: 1
    m_Data: {fileID: 21300076, guid: 520537376702ea646ab651b29aca7333, type: 3}
  - m_RefCount: 1
    m_Data: {fileID: 21300078, guid: 520537376702ea646ab651b29aca7333, type: 3}
  - m_RefCount: 1
    m_Data: {fileID: 21300080, guid: 520537376702ea646ab651b29aca7333, type: 3}
  - m_RefCount: 1
    m_Data: {fileID: 21300082, guid: 520537376702ea646ab651b29aca7333, type: 3}
  - m_RefCount: 1
    m_Data: {fileID: 21300084, guid: 520537376702ea646ab651b29aca7333, type: 3}
  - m_RefCount: 1
    m_Data: {fileID: 21300086, guid: 520537376702ea646ab651b29aca7333, type: 3}
  - m_RefCount: 1
    m_Data: {fileID: 21300088, guid: 520537376702ea646ab651b29aca7333, type: 3}
  - m_RefCount: 1
    m_Data: {fileID: 21300090, guid: 520537376702ea646ab651b29aca7333, type: 3}
  - m_RefCount: 1
    m_Data: {fileID: 21300092, guid: 520537376702ea646ab651b29aca7333, type: 3}
  - m_RefCount: 1
    m_Data: {fileID: 21300094, guid: 520537376702ea646ab651b29aca7333, type: 3}
  - m_RefCount: 1
    m_Data: {fileID: 21300096, guid: 520537376702ea646ab651b29aca7333, type: 3}
  - m_RefCount: 1
    m_Data: {fileID: 21300098, guid: 520537376702ea646ab651b29aca7333, type: 3}
  - m_RefCount: 1
    m_Data: {fileID: 21300100, guid: 520537376702ea646ab651b29aca7333, type: 3}
  - m_RefCount: 1
    m_Data: {fileID: 21300102, guid: 520537376702ea646ab651b29aca7333, type: 3}
  - m_RefCount: 1
    m_Data: {fileID: 21300104, guid: 520537376702ea646ab651b29aca7333, type: 3}
  - m_RefCount: 1
    m_Data: {fileID: 21300106, guid: 520537376702ea646ab651b29aca7333, type: 3}
  - m_RefCount: 1
    m_Data: {fileID: 21300108, guid: 520537376702ea646ab651b29aca7333, type: 3}
  - m_RefCount: 1
    m_Data: {fileID: 21300110, guid: 520537376702ea646ab651b29aca7333, type: 3}
  - m_RefCount: 1
    m_Data: {fileID: 21300112, guid: 520537376702ea646ab651b29aca7333, type: 3}
  - m_RefCount: 1
    m_Data: {fileID: 21300114, guid: 520537376702ea646ab651b29aca7333, type: 3}
  - m_RefCount: 1
    m_Data: {fileID: 21300116, guid: 520537376702ea646ab651b29aca7333, type: 3}
  - m_RefCount: 1
    m_Data: {fileID: 21300118, guid: 520537376702ea646ab651b29aca7333, type: 3}
  - m_RefCount: 1
    m_Data: {fileID: 21300120, guid: 520537376702ea646ab651b29aca7333, type: 3}
  - m_RefCount: 1
    m_Data: {fileID: 21300122, guid: 520537376702ea646ab651b29aca7333, type: 3}
  - m_RefCount: 1
    m_Data: {fileID: 21300124, guid: 520537376702ea646ab651b29aca7333, type: 3}
  - m_RefCount: 1
    m_Data: {fileID: 21300126, guid: 520537376702ea646ab651b29aca7333, type: 3}
  - m_RefCount: 1
    m_Data: {fileID: 21300128, guid: 520537376702ea646ab651b29aca7333, type: 3}
  - m_RefCount: 1
    m_Data: {fileID: 21300130, guid: 520537376702ea646ab651b29aca7333, type: 3}
  - m_RefCount: 1
    m_Data: {fileID: 21300132, guid: 520537376702ea646ab651b29aca7333, type: 3}
  - m_RefCount: 1
    m_Data: {fileID: 21300134, guid: 520537376702ea646ab651b29aca7333, type: 3}
  - m_RefCount: 1
    m_Data: {fileID: 21300136, guid: 520537376702ea646ab651b29aca7333, type: 3}
  - m_RefCount: 1
    m_Data: {fileID: 21300138, guid: 520537376702ea646ab651b29aca7333, type: 3}
  - m_RefCount: 1
    m_Data: {fileID: 21300140, guid: 520537376702ea646ab651b29aca7333, type: 3}
  - m_RefCount: 1
    m_Data: {fileID: 21300142, guid: 520537376702ea646ab651b29aca7333, type: 3}
  - m_RefCount: 1
    m_Data: {fileID: 21300144, guid: 520537376702ea646ab651b29aca7333, type: 3}
  - m_RefCount: 1
    m_Data: {fileID: 21300146, guid: 520537376702ea646ab651b29aca7333, type: 3}
  - m_RefCount: 1
    m_Data: {fileID: 21300148, guid: 520537376702ea646ab651b29aca7333, type: 3}
  - m_RefCount: 1
    m_Data: {fileID: 21300150, guid: 520537376702ea646ab651b29aca7333, type: 3}
  - m_RefCount: 1
    m_Data: {fileID: 21300152, guid: 520537376702ea646ab651b29aca7333, type: 3}
  - m_RefCount: 1
    m_Data: {fileID: 21300154, guid: 520537376702ea646ab651b29aca7333, type: 3}
  - m_RefCount: 1
    m_Data: {fileID: 21300156, guid: 520537376702ea646ab651b29aca7333, type: 3}
  - m_RefCount: 1
    m_Data: {fileID: 21300158, guid: 520537376702ea646ab651b29aca7333, type: 3}
  - m_RefCount: 1
    m_Data: {fileID: 21300160, guid: 520537376702ea646ab651b29aca7333, type: 3}
  - m_RefCount: 1
    m_Data: {fileID: 21300162, guid: 520537376702ea646ab651b29aca7333, type: 3}
  - m_RefCount: 1
    m_Data: {fileID: 21300164, guid: 520537376702ea646ab651b29aca7333, type: 3}
  - m_RefCount: 1
    m_Data: {fileID: 21300166, guid: 520537376702ea646ab651b29aca7333, type: 3}
  - m_RefCount: 1
    m_Data: {fileID: 21300168, guid: 520537376702ea646ab651b29aca7333, type: 3}
  - m_RefCount: 1
    m_Data: {fileID: 21300170, guid: 520537376702ea646ab651b29aca7333, type: 3}
  - m_RefCount: 1
    m_Data: {fileID: 21300172, guid: 520537376702ea646ab651b29aca7333, type: 3}
  - m_RefCount: 1
    m_Data: {fileID: 21300174, guid: 520537376702ea646ab651b29aca7333, type: 3}
  - m_RefCount: 1
    m_Data: {fileID: 21300176, guid: 520537376702ea646ab651b29aca7333, type: 3}
  - m_RefCount: 1
    m_Data: {fileID: 21300178, guid: 520537376702ea646ab651b29aca7333, type: 3}
  - m_RefCount: 1
    m_Data: {fileID: 21300180, guid: 520537376702ea646ab651b29aca7333, type: 3}
  - m_RefCount: 1
    m_Data: {fileID: 21300182, guid: 520537376702ea646ab651b29aca7333, type: 3}
  - m_RefCount: 1
    m_Data: {fileID: 21300184, guid: 520537376702ea646ab651b29aca7333, type: 3}
  - m_RefCount: 1
    m_Data: {fileID: 21300186, guid: 520537376702ea646ab651b29aca7333, type: 3}
  - m_RefCount: 1
    m_Data: {fileID: 21300188, guid: 520537376702ea646ab651b29aca7333, type: 3}
  - m_RefCount: 1
    m_Data: {fileID: 21300190, guid: 520537376702ea646ab651b29aca7333, type: 3}
  - m_RefCount: 1
    m_Data: {fileID: 21300192, guid: 520537376702ea646ab651b29aca7333, type: 3}
  - m_RefCount: 1
    m_Data: {fileID: 21300194, guid: 520537376702ea646ab651b29aca7333, type: 3}
  - m_RefCount: 1
    m_Data: {fileID: 21300196, guid: 520537376702ea646ab651b29aca7333, type: 3}
  - m_RefCount: 1
    m_Data: {fileID: 21300198, guid: 520537376702ea646ab651b29aca7333, type: 3}
  - m_RefCount: 1
    m_Data: {fileID: 21300200, guid: 520537376702ea646ab651b29aca7333, type: 3}
  - m_RefCount: 1
    m_Data: {fileID: 21300202, guid: 520537376702ea646ab651b29aca7333, type: 3}
  - m_RefCount: 1
    m_Data: {fileID: 21300204, guid: 520537376702ea646ab651b29aca7333, type: 3}
  - m_RefCount: 1
    m_Data: {fileID: 21300206, guid: 520537376702ea646ab651b29aca7333, type: 3}
  - m_RefCount: 1
    m_Data: {fileID: 21300208, guid: 520537376702ea646ab651b29aca7333, type: 3}
  - m_RefCount: 1
    m_Data: {fileID: 21300210, guid: 520537376702ea646ab651b29aca7333, type: 3}
  - m_RefCount: 1
    m_Data: {fileID: 21300212, guid: 520537376702ea646ab651b29aca7333, type: 3}
  - m_RefCount: 1
    m_Data: {fileID: 21300214, guid: 520537376702ea646ab651b29aca7333, type: 3}
  - m_RefCount: 1
    m_Data: {fileID: 21300216, guid: 520537376702ea646ab651b29aca7333, type: 3}
  - m_RefCount: 1
    m_Data: {fileID: 21300218, guid: 520537376702ea646ab651b29aca7333, type: 3}
  - m_RefCount: 1
    m_Data: {fileID: 21300220, guid: 520537376702ea646ab651b29aca7333, type: 3}
  - m_RefCount: 1
    m_Data: {fileID: 21300222, guid: 520537376702ea646ab651b29aca7333, type: 3}
  - m_RefCount: 1
    m_Data: {fileID: 21300224, guid: 520537376702ea646ab651b29aca7333, type: 3}
  - m_RefCount: 1
    m_Data: {fileID: 21300226, guid: 520537376702ea646ab651b29aca7333, type: 3}
  - m_RefCount: 1
    m_Data: {fileID: 21300228, guid: 520537376702ea646ab651b29aca7333, type: 3}
  - m_RefCount: 1
    m_Data: {fileID: 21300230, guid: 520537376702ea646ab651b29aca7333, type: 3}
  - m_RefCount: 1
    m_Data: {fileID: 21300232, guid: 520537376702ea646ab651b29aca7333, type: 3}
  m_TileMatrixArray:
  - m_RefCount: 117
    m_Data:
      e00: 1
      e01: 0
      e02: 0
      e03: 0
      e10: 0
      e11: 1
      e12: 0
      e13: 0
      e20: 0
      e21: 0
      e22: 1
      e23: 0
      e30: 0
      e31: 0
      e32: 0
      e33: 1
  m_TileColorArray:
  - m_RefCount: 117
    m_Data: {r: 1, g: 1, b: 1, a: 1}
  m_AnimationFrameRate: 1
  m_Color: {r: 1, g: 1, b: 1, a: 1}
  m_Origin: {x: 0, y: -9, z: 0}
  m_Size: {x: 16, y: 10, z: 1}
  m_TileAnchor: {x: 0.5, y: 0.5, z: 0}
  m_TileOrientation: 0
  m_TileOrientationMatrix:
    e00: 1
    e01: 0
    e02: 0
    e03: 0
    e10: 0
    e11: 1
    e12: 0
    e13: 0
    e20: 0
    e21: 0
    e22: 1
    e23: 0
    e30: 0
    e31: 0
    e32: 0
    e33: 1
--- !u!483693784 &6961371284184477718
TilemapRenderer:
  m_ObjectHideFlags: 0
  m_CorrespondingSourceObject: {fileID: 0}
  m_PrefabInstance: {fileID: 0}
  m_PrefabAsset: {fileID: 0}
  m_GameObject: {fileID: 7051250332721292149}
  m_Enabled: 0
  m_CastShadows: 0
  m_ReceiveShadows: 0
  m_DynamicOccludee: 0
  m_MotionVectors: 1
  m_LightProbeUsage: 0
  m_ReflectionProbeUsage: 0
  m_RenderingLayerMask: 1
  m_RendererPriority: 0
  m_Materials:
  - {fileID: 10754, guid: 0000000000000000f000000000000000, type: 0}
  m_StaticBatchInfo:
    firstSubMesh: 0
    subMeshCount: 0
  m_StaticBatchRoot: {fileID: 0}
  m_ProbeAnchor: {fileID: 0}
  m_LightProbeVolumeOverride: {fileID: 0}
  m_ScaleInLightmap: 1
  m_PreserveUVs: 0
  m_IgnoreNormalsForChartDetection: 0
  m_ImportantGI: 0
  m_StitchLightmapSeams: 0
  m_SelectedEditorRenderState: 0
  m_MinimumChartSize: 4
  m_AutoUVMaxDistance: 0.5
  m_AutoUVMaxAngle: 89
  m_LightmapParameters: {fileID: 0}
  m_SortingLayerID: 0
  m_SortingLayer: 0
  m_SortingOrder: 0
  m_ChunkSize: {x: 32, y: 32, z: 32}
  m_ChunkCullingBounds: {x: 0, y: 0, z: 0}
  m_MaxChunkCount: 16
  m_MaxFrameAge: 16
  m_SortOrder: 0
  m_Mode: 0
  m_DetectChunkCullingBounds: 0
  m_MaskInteraction: 0
--- !u!114 &114340558228461668
MonoBehaviour:
  m_ObjectHideFlags: 0
  m_CorrespondingSourceObject: {fileID: 0}
  m_PrefabInstance: {fileID: 0}
  m_PrefabAsset: {fileID: 0}
  m_GameObject: {fileID: 0}
  m_Enabled: 1
  m_EditorHideFlags: 0
  m_Script: {fileID: 12395, guid: 0000000000000000e000000000000000, type: 0}
  m_Name: Palette Settings
  m_EditorClassIdentifier: 
  cellSizing: 0
