%YAML 1.1
%TAG !u! tag:unity3d.com,2011:
--- !u!114 &11400000
MonoBehaviour:
  m_ObjectHideFlags: 0
  m_CorrespondingSourceObject: {fileID: 0}
  m_PrefabInstance: {fileID: 0}
  m_PrefabAsset: {fileID: 0}
  m_GameObject: {fileID: 0}
  m_Enabled: 1
  m_EditorHideFlags: 0
  m_Script: {fileID: 11500000, guid: dfa2d8c5a6c7a0040a95eaaef38b954e, type: 3}
  m_Name: Maurice
  m_EditorClassIdentifier: 
  NpcName: Maurice
  Life: 20
  IsHostile: 0
  IsMoving: 1
  IsFollowing: 0
  IsInvincible: 1
  DelaultNpcName: Maurice
  DelaultLife: 20
